{
    "/api/v1": {
        "target":  {
          "host": "digi-api.com", 
          "protocol": "https:",
          "port": 443
        },
        "secure": false,
        "changeOrigin": true,
        "logLevel": "info"
     }
     
}


